Exploratory Data Analysis
…
names(mydata)

##  [1] "school"          "school_setting"  "school_type"     "classroom"      
##  [5] "teaching_method" "n_student"       "student_id"      "gender"         
##  [9] "lunch"           "pretest"         "posttest"

School

We are grouping the dataset by school names to find the number of students studying for each school.

school_count <- group_by(mydata,school) %>% count()
school_count

## # A tibble: 23 x 2
## # Groups:   school [23]
##    school     n
##    <chr>  <int>
##  1 ANKYI     41
##  2 CCAAW    109
##  3 CIMBB     74
##  4 CUQAM    107
##  5 DNQDD    122
##  6 FBUMG     46
##  7 GJJHK    118
##  8 GOKXL     64
##  9 GOOBU    158
## 10 IDGFP     94
## # ... with 13 more rows
…
We have calculated the mean of the pretest and posttest scores of all the students belonging to each school.

mean_school <- mydata %>% select(school,pretest,posttest) %>% group_by(school) %>% summarise(pretest_mean=mean(pretest), posttest_mean=mean(posttest))
mean_school

## # A tibble: 23 x 3
##    school pretest_mean posttest_mean
##    <chr>         <dbl>         <dbl>
##  1 ANKYI          61.3          71.4
##  2 CCAAW          64.6          78.1
##  3 CIMBB          65.1          76.9
##  4 CUQAM          53.9          65.6
##  5 DNQDD          54.3          66.6
##  6 FBUMG          62.9          78.6
##  7 GJJHK          53.2          65.0
##  8 GOKXL          50.8          65.0
##  9 GOOBU          38.2          49.6
## 10 IDGFP          75.2          87.2
## # ... with 13 more rows
…
gender_st <- group_by(mydata,gender) %>% count()
gender_st

## # A tibble: 2 x 2
## # Groups:   gender [2]
##   gender     n
##   <chr>  <int>
## 1 Female  1056
## 2 Male    1077

genderwise_schoolwise <- mydata %>% select(school,gender) %>% group_by(school,gender) %>% count()
genderwise_schoolwise

## # A tibble: 46 x 3
## # Groups:   school, gender [46]
##    school gender     n
##    <chr>  <chr>  <int>
##  1 ANKYI  Female    20
##  2 ANKYI  Male      21
##  3 CCAAW  Female    69
##  4 CCAAW  Male      40
##  5 CIMBB  Female    37
##  6 CIMBB  Male      37
##  7 CUQAM  Female    43
##  8 CUQAM  Male      64
##  9 DNQDD  Female    53
## 10 DNQDD  Male      69
## # ... with 36 more rows
…
summary(mydata$pretest)

##    Min. 1st Qu.  Median    Mean 3rd Qu.    Max. 
##   22.00   44.00   56.00   54.96   65.00   93.00

summary(mydata$posttest)

##    Min. 1st Qu.  Median    Mean 3rd Qu.    Max. 
##    32.0    56.0    68.0    67.1    77.0   100.0

pre_post <- mydata %>% select(pretest,posttest) %>% pivot_longer(cols=c(pretest,posttest))
pre_post

## # A tibble: 4,266 x 2
##    name     value
##    <chr>    <dbl>
##  1 pretest     62
##  2 posttest    72
##  3 pretest     66
##  4 posttest    79
##  5 pretest     64
##  6 posttest    76
##  7 pretest     61
##  8 posttest    77
##  9 pretest     64
## 10 posttest    76
## # ... with 4,256 more rows
…
